5 t-tests – Research Process for Music Psychologists
…
Paired samples using the one-sample t-test

Mathematically, all a paired-samples t-test is doing is running a one-sample t-test on the differences between the two timepoints/groups, Below is a demonstration of how paired-samples tests can be run using the one-sample t-test.

Let’s start by returning to the wide version of our dataset. We first need to calculate the difference between the before and after columns, which we can easily do with mutate().

w8_symptoms <- w8_symptoms %>%
  mutate(
    diff = before - after
  )

w8_symptoms

# A tibble: 32 × 3
   before after  diff
    <dbl> <dbl> <dbl>
 1     14    18    -4
 2     18    17     1
 3     14    18    -4
 4     10    18    -8
 5     14    12     2
 6     14    13     1
 7     11    20    -9
 8     12    18    -6
 9     15    18    -3
10     18     8    10
# ℹ 22 more rows
…
