Appendix – Research Process for Music Psychologists
…
Regressions

augment() is probably most useful for regression models. It will print out the following:

.fitted is the predicted score for each participant

.resid is the residual for each participant (i.e. actual - fitted)

.cooksd is Cook’s distance, which is useful for outlier detection in some contexts

augment(marketing_lm)

# A tibble: 200 × 10
   sales youtube facebook newspaper .fitted  .resid    .hat .sigma    .cooksd
   <dbl>   <dbl>    <dbl>     <dbl>   <dbl>   <dbl>   <dbl>  <dbl>      <dbl>
 1 26.5    276.     45.4       83.0   24.6   1.89   0.0252    2.02 0.00580   
 2 12.5     53.4    47.2       54.1   14.8  -2.33   0.0194    2.02 0.00667   
 3 11.2     20.6    55.1       83.2   14.8  -3.61   0.0392    2.01 0.0338    
 4 22.2    182.     49.6       70.2   21.1   1.08   0.0166    2.03 0.00123   
 5 15.5    217.     13.0       70.1   15.8  -0.346  0.0235    2.03 0.000181  
 6  8.64    10.4    58.7       90     15.0  -6.33   0.0475    1.97 0.128     
 7 14.2     69      39.4       28.2   14.1   0.0843 0.0144    2.03 0.00000645
 8 15.8    144.     23.5       13.9   14.5   1.29   0.00918   2.03 0.000955  
 9  5.76    10.3     2.52       1.2    4.47  1.29   0.0307    2.03 0.00331   
10 12.7    240.      3.12      25.4   15.1  -2.34   0.0171    2.02 0.00595   
# ℹ 190 more rows
# ℹ 1 more variable: .std.resid <dbl>
…
