1 A very brief introduction to R – Research Process for Music Psychologists
…
Adapted from R4DS.

Here is an example of a data frame in tidy format. Note how each column corresponds to a different variable, or piece of data that we’re interested in. Each column is also clearly labelled, so it is clear what it represents. Each row corresponds to an observation (a single penguin, in this case). So, the first row represnts an Adelie penguin on Torgersen Island, with a bill length of 39.1mm etc etc.

library(palmerpenguins)

Attaching package: 'palmerpenguins'

The following objects are masked from 'package:datasets':

    penguins, penguins_raw

penguins

# A tibble: 344 × 8
   species island    bill_length_mm bill_depth_mm flipper_length_mm body_mass_g
   <fct>   <fct>              <dbl>         <dbl>             <int>       <int>
 1 Adelie  Torgersen           39.1          18.7               181        3750
 2 Adelie  Torgersen           39.5          17.4               186        3800
 3 Adelie  Torgersen           40.3          18                 195        3250
 4 Adelie  Torgersen           NA            NA                  NA          NA
 5 Adelie  Torgersen           36.7          19.3               193        3450
 6 Adelie  Torgersen           39.3          20.6               190        3650
 7 Adelie  Torgersen           38.9          17.8               181        3625
 8 Adelie  Torgersen           39.2          19.6               195        4675
 9 Adelie  Torgersen           34.1          18.1               193        3475
10 Adelie  Torgersen           42            20.2               190        4250
# ℹ 334 more rows
# ℹ 2 more variables: sex <fct>, year <int>
…
We can pull out whole rows or columns by simply leaving the number blank. If we want all values in a row, we do not specify a column and vice versa. For example, let us take all of row 1 from the penguins dataset:

penguins[1,]

# A tibble: 1 × 8
  species island    bill_length_mm bill_depth_mm flipper_length_mm body_mass_g
  <fct>   <fct>              <dbl>         <dbl>             <int>       <int>
1 Adelie  Torgersen           39.1          18.7               181        3750
# ℹ 2 more variables: sex <fct>, year <int>

Or let’s take all of the species column only, which is column 1:

penguins[,1]

# A tibble: 344 × 1
   species
   <fct>  
 1 Adelie 
 2 Adelie 
 3 Adelie 
 4 Adelie 
 5 Adelie 
 6 Adelie 
 7 Adelie 
 8 Adelie 
 9 Adelie 
10 Adelie 
# ℹ 334 more rows
…
Or, columns 2 to 4:

penguins[,2:4]

# A tibble: 344 × 3
   island    bill_length_mm bill_depth_mm
   <fct>              <dbl>         <dbl>
 1 Torgersen           39.1          18.7
 2 Torgersen           39.5          17.4
 3 Torgersen           40.3          18  
 4 Torgersen           NA            NA  
 5 Torgersen           36.7          19.3
 6 Torgersen           39.3          20.6
 7 Torgersen           38.9          17.8
 8 Torgersen           39.2          19.6
 9 Torgersen           34.1          18.1
10 Torgersen           42            20.2
# ℹ 334 more rows
…
Even if you are not using a project structure (although we highly recommend you do), you can still use here() - so long as the file can be located relative to your current working directory, which can be obtained using setwd(). However, it’s usually worth saving yourself the hassle and creating a new R project for substantive bits of work, and saving files as folders within that project’s folder.

1.6 Wrangling data with dplyr and others

dplyr is a package within the tidyverse for manipulating and wrangling data. dplyr is one of the most popular packages on R because it provides a suite of functions that are fairly essential to manipulating and working with data. Below is a brief overview of some of these functions, applied to the penguins dataset.

1.6.1 Selecting columns with select()

select() lets you select the columns you want from a dataset. Simply specify the columns that you want by name. Below we take the species and island columns from the penguins dataset:

penguins %>%
  select(species, island)

# A tibble: 344 × 2
   species island   
   <fct>   <fct>    
 1 Adelie  Torgersen
 2 Adelie  Torgersen
 3 Adelie  Torgersen
 4 Adelie  Torgersen
 5 Adelie  Torgersen
 6 Adelie  Torgersen
 7 Adelie  Torgersen
 8 Adelie  Torgersen
 9 Adelie  Torgersen
10 Adelie  Torgersen
# ℹ 334 more rows
…
select(-1) will select the last column

By certain operator functions, such as starts_with() and ends_with(), e.g. ends_with("mm") will select all columns that end with “mm”

Combinations of the above also work. Removing columns is simply done by adding a minus sign - in front of the arguments for select, and are compatible with all of the options above.

1.6.2 Filtering rows with filter()

filter() selects the rows that you want based on a certain condition. Here, we specify the column that want to filter by and state the condition (== means equals to). We can filter on multiple conditions; for example, filtering Adelie penguins by the year 2007:

penguins %>%
  filter(year == 2007, species == "Adelie")

# A tibble: 50 × 8
   species island    bill_length_mm bill_depth_mm flipper_length_mm body_mass_g
   <fct>   <fct>              <dbl>         <dbl>             <int>       <int>
 1 Adelie  Torgersen           39.1          18.7               181        3750
 2 Adelie  Torgersen           39.5          17.4               186        3800
 3 Adelie  Torgersen           40.3          18                 195        3250
 4 Adelie  Torgersen           NA            NA                  NA          NA
 5 Adelie  Torgersen           36.7          19.3               193        3450
 6 Adelie  Torgersen           39.3          20.6               190        3650
 7 Adelie  Torgersen           38.9          17.8               181        3625
 8 Adelie  Torgersen           39.2          19.6               195        4675
 9 Adelie  Torgersen           34.1          18.1               193        3475
10 Adelie  Torgersen           42            20.2               190        4250
# ℹ 40 more rows
# ℹ 2 more variables: sex <fct>, year <int>

You can also choose to filter out rows based on a condition by adding an exclamation mark in front of the column name.

penguins %>%
  filter(!year == 2007)

# A tibble: 234 × 8
   species island bill_length_mm bill_depth_mm flipper_length_mm body_mass_g
   <fct>   <fct>           <dbl>         <dbl>             <int>       <int>
 1 Adelie  Biscoe           39.6          17.7               186        3500
 2 Adelie  Biscoe           40.1          18.9               188        4300
 3 Adelie  Biscoe           35            17.9               190        3450
 4 Adelie  Biscoe           42            19.5               200        4050
 5 Adelie  Biscoe           34.5          18.1               187        2900
 6 Adelie  Biscoe           41.4          18.6               191        3700
 7 Adelie  Biscoe           39            17.5               186        3550
 8 Adelie  Biscoe           40.6          18.8               193        3800
 9 Adelie  Biscoe           36.5          16.6               181        2850
10 Adelie  Biscoe           37.6          19.1               194        3750
# ℹ 224 more rows
# ℹ 2 more variables: sex <fct>, year <int>

drop_na() is another useful starting function that simply removes all rows with NA/empty cells. If you enter it as is then it will clean the entire dataset; if you specify a column then it will remove all rows with NAs in that column. Below is an example of a pipe using these functions - going from selecting columns to filtering rows and finally cleaning up the empty cells.

penguins %>%
  select(species, body_mass_g, year) %>%
  filter(year == 2009) %>%
  drop_na()

# A tibble: 119 × 3
   species body_mass_g  year
   <fct>         <int> <int>
 1 Adelie         3725  2009
 2 Adelie         4725  2009
 3 Adelie         3075  2009
 4 Adelie         4250  2009
 5 Adelie         2925  2009
 6 Adelie         3550  2009
 7 Adelie         3750  2009
 8 Adelie         3900  2009
 9 Adelie         3175  2009
10 Adelie         4775  2009
# ℹ 109 more rows
…
The basic workflow of mutate() looks like this:

data %>%
  mutate(
    new_column_1 = a_function(...),
    new_column_2 = another_function(...)
    )

This example code would create two new columns, named new_column_1 and new_column_2, with their respective values being whatever the functions were. For example, in the penguins dataset we have a variable called body_mass_g, which is the body mass of each penguin in grams. If we wanted to convert this to kilograms, we would need to divide each penguin’s value on this variable by 1000. mutate() makes this a piece of cake. Let’s also chain a select() command to only show the following variables: species, island, body_mass_g and sex.

penguins %>%
  select(species, island, body_mass_g, sex) %>%
  mutate(body_mass_kg = body_mass_g/1000)

# A tibble: 344 × 5
   species island    body_mass_g sex    body_mass_kg
   <fct>   <fct>           <int> <fct>         <dbl>
 1 Adelie  Torgersen        3750 male           3.75
 2 Adelie  Torgersen        3800 female         3.8 
 3 Adelie  Torgersen        3250 female         3.25
 4 Adelie  Torgersen          NA <NA>          NA   
 5 Adelie  Torgersen        3450 female         3.45
 6 Adelie  Torgersen        3650 male           3.65
 7 Adelie  Torgersen        3625 female         3.62
 8 Adelie  Torgersen        4675 male           4.68
 9 Adelie  Torgersen        3475 <NA>           3.48
10 Adelie  Torgersen        4250 <NA>           4.25
# ℹ 334 more rows

You can see now that we have a new column called body_mass_kg that has our new transformed variable.

mutate() can also take functions (and likely will make up the majority of your use of it). For example, let’s say that we want to make a variable that takes the natural logarithm of bill length (for whatever reason). We could do this as follows using the log() function within our mutate() call:

penguins %>%
  select(species, island, bill_length_mm, bill_depth_mm) %>%
  mutate(bill_length_log = log(bill_length_mm))

# A tibble: 344 × 5
   species island    bill_length_mm bill_depth_mm bill_length_log
   <fct>   <fct>              <dbl>         <dbl>           <dbl>
 1 Adelie  Torgersen           39.1          18.7            3.67
 2 Adelie  Torgersen           39.5          17.4            3.68
 3 Adelie  Torgersen           40.3          18              3.70
 4 Adelie  Torgersen           NA            NA             NA   
 5 Adelie  Torgersen           36.7          19.3            3.60
 6 Adelie  Torgersen           39.3          20.6            3.67
 7 Adelie  Torgersen           38.9          17.8            3.66
 8 Adelie  Torgersen           39.2          19.6            3.67
 9 Adelie  Torgersen           34.1          18.1            3.53
10 Adelie  Torgersen           42            20.2            3.74
# ℹ 334 more rows
…
