9 Regression continued – Research Process for Music Psychologists
…
[1] 5.657846e-10

max(flow_cooksd)

[1] 0.05169864

If you prefer a tidyverse implementation, you can use the augment() function from the broom package (see the appendix for more information on broom). This returns a whole range of values, including fitted values, residuals (both of which are useful for Q-Q plots) and Cook’s distances:

library(broom)
flow_extra <- augment(flow_block3)

flow_extra

# A tibble: 811 × 10
   DFS_Total GoldMSI openness trait_anxiety .fitted   .resid    .hat .sigma
       <dbl>   <dbl>    <dbl>         <dbl>   <dbl>    <dbl>   <dbl>  <dbl>
 1      30.5    5.61      5.5            54    31.9 -1.43    0.00203   3.35
 2      29.2    5.44      5              66    30.0 -0.793   0.00581   3.35
 3      27.5    5.06      4.5            58    29.7 -2.23    0.00479   3.35
 4      33      5.56      6              44    33.0 -0.00839 0.00144   3.35
 5      31      4         6.5            52    28.1  2.85    0.0105    3.35
 6      34.2    6         5.5            45    33.9  0.325   0.00297   3.35
 7      30.2    5.33      6.5            41    32.9 -2.61    0.00241   3.35
 8      34.5    6.11      6.5            36    35.5 -0.977   0.00414   3.35
 9      25      4.17      5.5            52    28.3 -3.30    0.00641   3.34
10      29.8    5.83      6              47    33.4 -3.66    0.00173   3.34
# ℹ 801 more rows
# ℹ 2 more variables: .cooksd <dbl>, .std.resid <dbl>
…
9.4.2 Mahalanobis’ distance, \(D^2\)

Mahalanobis’ distance, \(D^2\), is a measure of multivariate outliers - ie. outliers across two or more predictors. The basic idea is that it is the literal distance between a ‘cloud’ of all of the predictors in your model. Outliers can be described as data points that are the furthest away from the centre of this ‘cloud’, quantified by having a high Mahalanobis distance.

Generating Mahalanobis’ distances in R is not difficult, and can be calculated using the mahalanobis_distance() function from the rstatix. This needs to be piped from the original dataset, and given the names of the predictors in the regression model.

In this case, as we are working with three predictors in this model - Gold-MSI scores, trait anxiety and openness - we give the names of these variables from our dataframe to this function.

flow_data <- flow_data %>%
  mahalanobis_distance(GoldMSI, trait_anxiety, openness)

flow_data

# A tibble: 811 × 8
      id   age GoldMSI DFS_Total trait_anxiety openness mahal.dist is.outlier
   <dbl> <dbl>   <dbl>     <dbl>         <dbl>    <dbl>      <dbl> <lgl>     
 1     1    24    5.61      30.5            54      5.5      0.649 FALSE     
 2     2    30    5.44      29.2            66      5        3.71  FALSE     
 3     3    25    5.06      27.5            58      4.5      2.88  FALSE     
 4     4    22    5.56      33              44      6        0.168 FALSE     
 5     5    18    4         31              52      6.5      7.48  FALSE     
 6     6    20    6         34.2            45      5.5      1.41  FALSE     
 7     7    23    5.33      30.2            41      6.5      0.954 FALSE     
 8     8    23    6.11      34.5            36      6.5      2.36  FALSE     
 9     9    20    4.17      25              52      5.5      4.20  FALSE     
10    10    25    5.83      29.8            47      6        0.399 FALSE     
# ℹ 801 more rows
…
